{
  "categories": [
    { "id": 0, "title": "title one", "clues_count": 5 },
    { "id": 1, "title": "title two", "clues_count": 5 },
    { "id": 2, "title": "title three", "clues_count": 5 }
  ],
  "clue": {
    "id": 0,
    "question": "q one",
    "answer": "a one",
    "value": 200
  },
  "clues": [
    {
      "id": 0,
      "question": "q one",
      "answer": "a one",
      "value": 200
    },
    {
      "id": 1,
      "question": "q two",
      "answer": "a two",
      "value": 400
    },
    {
      "id": 2,
      "question": "q three",
      "answer": "a three",
      "value": 600
    }
  ]
}
